<?xml version="1.0" encoding="UTF-8"?>
<kml xmlns="http://earth.google.com/kml/2.2">
<Document>
  <name>provincias</name>
  <description><![CDATA[Provincias argentinas]]></description>
  <Style id="estilo-provincia">
	<LineStyle>
	  <color>7d0000ff</color>
	  <width>1</width>
	</LineStyle>
	<PolyStyle>
	  <color>7d0000ff</color>
	  <fill>1</fill>
	  <outline>1</outline>
	</PolyStyle>
  </Style>
  <Placemark>
    <name>Neuquén</name>
    <styleUrl>#estilo-provincia</styleUrl>
    <Polygon>
      <outerBoundaryIs>
        <LinearRing>
          <tessellate>1</tessellate>
          <coordinates>
            -70.392326,-36.171070,0.000000
            -70.412346,-36.103119,0.000000
            -70.419083,-36.145329,0.000000
            -70.445732,-36.171215,0.000000
            -70.567650,-36.123848,0.000000
            -70.576836,-36.167786,0.000000
            -70.635567,-36.231346,0.000000
            -70.698784,-36.254688,0.000000
            -70.690430,-36.294239,0.000000
            -70.707695,-36.325909,0.000000
            -70.674850,-36.375153,0.000000
            -70.693840,-36.407036,0.000000
            -70.734467,-36.412048,0.000000
            -70.770485,-36.397156,0.000000
            -70.788902,-36.411602,0.000000
            -70.886147,-36.383263,0.000000
            -70.888176,-36.441948,0.000000
            -70.935638,-36.473179,0.000000
            -70.955719,-36.483677,0.000000
            -71.034485,-36.464882,0.000000
            -71.050797,-36.598354,0.000000
            -71.024376,-36.663647,0.000000
            -71.065758,-36.695141,0.000000
            -71.092842,-36.659874,0.000000
            -71.111885,-36.659355,0.000000
            -71.128929,-36.792564,0.000000
            -71.170227,-36.839394,0.000000
            -71.165642,-36.862396,0.000000
            -71.127968,-36.861149,0.000000
            -71.142433,-36.906101,0.000000
            -71.101776,-36.949608,0.000000
            -71.122017,-36.973381,0.000000
            -71.188057,-36.964088,0.000000
            -71.202599,-36.974865,0.000000
            -71.155792,-37.000141,0.000000
            -71.132156,-37.076408,0.000000
            -71.091873,-37.103165,0.000000
            -71.142197,-37.138618,0.000000
            -71.143250,-37.207165,0.000000
            -71.212784,-37.297554,0.000000
            -71.185699,-37.375019,0.000000
            -71.132629,-37.425365,0.000000
            -71.116196,-37.471928,0.000000
            -71.149300,-37.522083,0.000000
            -71.129410,-37.581303,0.000000
            -71.177078,-37.612202,0.000000
            -71.203217,-37.680099,0.000000
            -71.153481,-37.757206,0.000000
            -71.155556,-37.783531,0.000000
            -71.098839,-37.901051,0.000000
            -71.091431,-37.967625,0.000000
            -71.037743,-38.062599,0.000000
            -70.997406,-38.098461,0.000000
            -71.042526,-38.133099,0.000000
            -71.015747,-38.167629,0.000000
            -71.035599,-38.250290,0.000000
            -71.004501,-38.405602,0.000000
            -70.976204,-38.441959,0.000000
            -70.849419,-38.533672,0.000000
            -70.831726,-38.567341,0.000000
            -70.902115,-38.656666,0.000000
            -70.894958,-38.691341,0.000000
            -70.947517,-38.745369,0.000000
            -70.992783,-38.757347,0.000000
            -71.054352,-38.740440,0.000000
            -71.195541,-38.813438,0.000000
            -71.241272,-38.805851,0.000000
            -71.267296,-38.851460,0.000000
            -71.427811,-38.929832,0.000000
            -71.411751,-39.005669,0.000000
            -71.437424,-39.042549,0.000000
            -71.416695,-39.088242,0.000000
            -71.415749,-39.159679,0.000000
            -71.387970,-39.207088,0.000000
            -71.397682,-39.260712,0.000000
            -71.386276,-39.284485,0.000000
            -71.410446,-39.338543,0.000000
            -71.472343,-39.401779,0.000000
            -71.447548,-39.431507,0.000000
            -71.466736,-39.483810,0.000000
            -71.533089,-39.521984,0.000000
            -71.531784,-39.537796,0.000000
            -71.482437,-39.567509,0.000000
            -71.481033,-39.590191,0.000000
            -71.500961,-39.625069,0.000000
            -71.593262,-39.627048,0.000000
            -71.667549,-39.573029,0.000000
            -71.701103,-39.587250,0.000000
            -71.718971,-39.637703,0.000000
            -71.681061,-39.682590,0.000000
            -71.712509,-39.722256,0.000000
            -71.687279,-39.757286,0.000000
            -71.689346,-39.841198,0.000000
            -71.671768,-39.857090,0.000000
            -71.637863,-39.854069,0.000000
            -71.633202,-39.875893,0.000000
            -71.589058,-39.897068,0.000000
            -71.614227,-39.962700,0.000000
            -71.684151,-40.025879,0.000000
            -71.664642,-40.081421,0.000000
            -71.671257,-40.104080,0.000000
            -71.709877,-40.113308,0.000000
            -71.788536,-40.078156,0.000000
            -71.819710,-40.097439,0.000000
            -71.796974,-40.105774,0.000000
            -71.816505,-40.170528,0.000000
            -71.800186,-40.192371,0.000000
            -71.829582,-40.226131,0.000000
            -71.795311,-40.242180,0.000000
            -71.749199,-40.307129,0.000000
            -71.726395,-40.305153,0.000000
            -71.712799,-40.281357,0.000000
            -71.681313,-40.300026,0.000000
            -71.654083,-40.368649,0.000000
            -71.719292,-40.438099,0.000000
            -71.771828,-40.409779,0.000000
            -71.804535,-40.411640,0.000000
            -71.849777,-40.560429,0.000000
            -71.882629,-40.558144,0.000000
            -71.838379,-40.596069,0.000000
            -71.832756,-40.633110,0.000000
            -71.945770,-40.729645,0.000000
            -71.858017,-40.913101,0.000000
            -71.852707,-40.955872,0.000000
            -71.893913,-40.978481,0.000000
            -71.851067,-41.025459,0.000000
            -71.599045,-41.038048,0.000000
            -71.537735,-41.024658,0.000000
            -71.459076,-41.041138,0.000000
            -71.358482,-41.089016,0.000000
            -71.291862,-41.096313,0.000000
            -71.233780,-41.093773,0.000000
            -71.135933,-41.048584,0.000000
            -71.119858,-41.013393,0.000000
            -71.093246,-40.998592,0.000000
            -71.101471,-40.986855,0.000000
            -71.061165,-40.977680,0.000000
            -71.038940,-40.954853,0.000000
            -71.027229,-40.904247,0.000000
            -71.057083,-40.851246,0.000000
            -71.097588,-40.834324,0.000000
            -71.089928,-40.822521,0.000000
            -71.113716,-40.799309,0.000000
            -71.118927,-40.760967,0.000000
            -71.088943,-40.724724,0.000000
            -71.036797,-40.725296,0.000000
            -70.984299,-40.648357,0.000000
            -70.878418,-40.619392,0.000000
            -70.856506,-40.599445,0.000000
            -70.737038,-40.582413,0.000000
            -70.713936,-40.596527,0.000000
            -70.663315,-40.588905,0.000000
            -70.624062,-40.551468,0.000000
            -70.527390,-40.504215,0.000000
            -70.463371,-40.510555,0.000000
            -70.420715,-40.536491,0.000000
            -70.171967,-40.479401,0.000000
            -70.181198,-40.423447,0.000000
            -70.096169,-40.397961,0.000000
            -70.061546,-40.369766,0.000000
            -70.042747,-40.272659,0.000000
            -70.061531,-40.246433,0.000000
            -69.988708,-40.178810,0.000000
            -69.954437,-40.179501,0.000000
            -69.964630,-40.122593,0.000000
            -69.992516,-40.108112,0.000000
            -70.004471,-40.046837,0.000000
            -69.934631,-39.946617,0.000000
            -69.694992,-39.845860,0.000000
            -69.507210,-39.808041,0.000000
            -69.359390,-39.714252,0.000000
            -69.276627,-39.599895,0.000000
            -69.230125,-39.562756,0.000000
            -69.173164,-39.550713,0.000000
            -69.123016,-39.518124,0.000000
            -68.993927,-39.504028,0.000000
            -68.899071,-39.409782,0.000000
            -68.837975,-39.384228,0.000000
            -68.810570,-39.284428,0.000000
            -68.674873,-39.221214,0.000000
            -68.659149,-39.200176,0.000000
            -68.668015,-39.166664,0.000000
            -68.566689,-39.085587,0.000000
            -68.290092,-38.981201,0.000000
            -68.237381,-38.987003,0.000000
            -68.194153,-38.969067,0.000000
            -68.086578,-38.992207,0.000000
            -68.014183,-38.977112,0.000000
            -68.016792,-38.955704,0.000000
            -68.072098,-38.904869,0.000000
            -68.125397,-38.751225,0.000000
            -68.245338,-38.687645,0.000000
            -68.242752,-37.577858,0.000000
            -68.298729,-37.557919,0.000000
            -68.429939,-37.546001,0.000000
            -68.459648,-37.499142,0.000000
            -68.492538,-37.479542,0.000000
            -68.496223,-37.454678,0.000000
            -68.694275,-37.439499,0.000000
            -68.716492,-37.387691,0.000000
            -68.763428,-37.366428,0.000000
            -68.865852,-37.395344,0.000000
            -68.907867,-37.371086,0.000000
            -69.015800,-37.363213,0.000000
            -69.041435,-37.333740,0.000000
            -69.040710,-37.246910,0.000000
            -69.065735,-37.219025,0.000000
            -69.152390,-37.180939,0.000000
            -69.278320,-37.142494,0.000000
            -69.488815,-37.174725,0.000000
            -69.702126,-37.092285,0.000000
            -69.733040,-37.065327,0.000000
            -69.736130,-37.036240,0.000000
            -69.774803,-36.980354,0.000000
            -69.775200,-36.900726,0.000000
            -69.760162,-36.866451,0.000000
            -69.847382,-36.834694,0.000000
            -69.871483,-36.802639,0.000000
            -69.904366,-36.791069,0.000000
            -69.907951,-36.749287,0.000000
            -69.950111,-36.697491,0.000000
            -70.056313,-36.640472,0.000000
            -70.124733,-36.568066,0.000000
            -70.200706,-36.451485,0.000000
            -70.191978,-36.427338,0.000000
            -70.220665,-36.337761,0.000000
            -70.269463,-36.326454,0.000000
            -70.309601,-36.344555,0.000000
            -70.363342,-36.321327,0.000000
            -70.398575,-36.206669,0.000000
            -70.392326,-36.171070,0.000000
          </coordinates>
        </LinearRing>
      </outerBoundaryIs>
    </Polygon>
  </Placemark>
</Document>
</kml>
