<?xml version="1.0" encoding="UTF-8"?>
<kml xmlns="http://earth.google.com/kml/2.2">
<Document>
  <name>provincias</name>
  <description><![CDATA[Provincias argentinas]]></description>
  <Style id="estilo-provincia">
	<LineStyle>
	  <color>7d0000ff</color>
	  <width>1</width>
	</LineStyle>
	<PolyStyle>
	  <color>7d0000ff</color>
	  <fill>1</fill>
	  <outline>1</outline>
	</PolyStyle>
  </Style>
<Placemark>
    <name>Santa Fe</name>
    <styleUrl>#estilo-provincia</styleUrl>
    <Polygon>
      <outerBoundaryIs>
        <LinearRing>
          <tessellate>1</tessellate>
          <coordinates>
            -61.717167,-27.993929,0.000000
            -62.127743,-30.488106,0.000000
            -62.023487,-30.592356,0.000000
            -61.978180,-30.598034,0.000000
            -61.982559,-30.646278,0.000000
            -61.832272,-30.673492,0.000000
            -62.131950,-31.608557,0.000000
            -62.249630,-31.701635,0.000000
            -62.214954,-31.781519,0.000000
            -62.229645,-31.886734,0.000000
            -62.176086,-31.972664,0.000000
            -62.194786,-32.117104,0.000000
            -62.176662,-32.158493,0.000000
            -62.127304,-32.208332,0.000000
            -62.039314,-32.257492,0.000000
            -61.985046,-32.394569,0.000000
            -61.931469,-32.458893,0.000000
            -61.911064,-32.520309,0.000000
            -61.928223,-32.540279,0.000000
            -61.901196,-32.556118,0.000000
            -61.920109,-32.585819,0.000000
            -61.888306,-32.589115,0.000000
            -61.887424,-32.606983,0.000000
            -61.949528,-32.643349,0.000000
            -61.953205,-32.673744,0.000000
            -61.864895,-32.697765,0.000000
            -61.789341,-32.790977,0.000000
            -61.796432,-32.873180,0.000000
            -61.777672,-32.907501,0.000000
            -61.790859,-32.998371,0.000000
            -61.798790,-33.022686,0.000000
            -61.924976,-33.124725,0.000000
            -62.497032,-33.894127,0.000000
            -62.889221,-34.384293,0.000000
            -61.717686,-34.378822,0.000000
            -60.916348,-33.636604,0.000000
            -60.914467,-33.591599,0.000000
            -60.869205,-33.550262,0.000000
            -60.821987,-33.541866,0.000000
            -60.749897,-33.579380,0.000000
            -60.691055,-33.576042,0.000000
            -60.621906,-33.620335,0.000000
            -60.541660,-33.644909,0.000000
            -60.459522,-33.626583,0.000000
            -60.458050,-33.584148,0.000000
            -60.415329,-33.548294,0.000000
            -60.405533,-33.458851,0.000000
            -60.340374,-33.414742,0.000000
            -60.318409,-33.350323,0.000000
            -60.282753,-33.319958,0.000000
            -60.249889,-33.260139,0.000000
            -60.301895,-33.236652,0.000000
            -60.318714,-33.172314,0.000000
            -60.349155,-33.166451,0.000000
            -60.385582,-33.183941,0.000000
            -60.523785,-33.102287,0.000000
            -60.601665,-33.004417,0.000000
            -60.610905,-32.951885,0.000000
            -60.676167,-32.902191,0.000000
            -60.673706,-32.826527,0.000000
            -60.715874,-32.763691,0.000000
            -60.715916,-32.734196,0.000000
            -60.695499,-32.708614,0.000000
            -60.748421,-32.618832,0.000000
            -60.756706,-32.496861,0.000000
            -60.720890,-32.451927,0.000000
            -60.712261,-32.402031,0.000000
            -60.735947,-32.311954,0.000000
            -60.673378,-32.306774,0.000000
            -60.673988,-32.224533,0.000000
            -60.733700,-32.171207,0.000000
            -60.658241,-32.080601,0.000000
            -60.684898,-32.018322,0.000000
            -60.723789,-32.004868,0.000000
            -60.707737,-31.949720,0.000000
            -60.662640,-31.910395,0.000000
            -60.668556,-31.742559,0.000000
            -60.658096,-31.723736,0.000000
            -60.609978,-31.723845,0.000000
            -60.573509,-31.692913,0.000000
            -60.505539,-31.699978,0.000000
            -60.428047,-31.677311,0.000000
            -60.325230,-31.605680,0.000000
            -60.328167,-31.546961,0.000000
            -60.241035,-31.520081,0.000000
            -60.188816,-31.452309,0.000000
            -60.140785,-31.437965,0.000000
            -60.093586,-31.339443,0.000000
            -60.095398,-31.286257,0.000000
            -60.015228,-31.243727,0.000000
            -59.961739,-31.113455,0.000000
            -59.890003,-31.060577,0.000000
            -59.761456,-30.889555,0.000000
            -59.743591,-30.831999,0.000000
            -59.690765,-30.812538,0.000000
            -59.685863,-30.775291,0.000000
            -59.626568,-30.700045,0.000000
            -59.628872,-30.677101,0.000000
            -59.672302,-30.632196,0.000000
            -59.646198,-30.574827,0.000000
            -59.650810,-30.520132,0.000000
            -59.674305,-30.436707,0.000000
            -59.708286,-30.405268,0.000000
            -59.654968,-30.325264,0.000000
            -59.687977,-30.276405,0.000000
            -59.622402,-30.227989,0.000000
            -59.624004,-30.161018,0.000000
            -59.592701,-30.096727,0.000000
            -59.599464,-30.061008,0.000000
            -59.562962,-30.028437,0.000000
            -59.566074,-30.005095,0.000000
            -59.588314,-30.000044,0.000000
            -59.623947,-29.882839,0.000000
            -59.680103,-29.830669,0.000000
            -59.618156,-29.754314,0.000000
            -59.637299,-29.698776,0.000000
            -59.602955,-29.646854,0.000000
            -59.615753,-29.592493,0.000000
            -59.595127,-29.441225,0.000000
            -59.609138,-29.403702,0.000000
            -59.590137,-29.364424,0.000000
            -59.525372,-29.318113,0.000000
            -59.492943,-29.225052,0.000000
            -59.399063,-29.209860,0.000000
            -59.327034,-29.098080,0.000000
            -59.250912,-29.086721,0.000000
            -59.213425,-29.061129,0.000000
            -59.164001,-28.872772,0.000000
            -59.161186,-28.778263,0.000000
            -59.077141,-28.644676,0.000000
            -59.109543,-28.606388,0.000000
            -59.056896,-28.482988,0.000000
            -59.100243,-28.343355,0.000000
            -59.097240,-28.211498,0.000000
            -59.068539,-28.175692,0.000000
            -59.055717,-28.126146,0.000000
            -58.926376,-28.112049,0.000000
            -58.870823,-28.032621,0.000000
            -58.892986,-27.999348,0.000000
            -61.717167,-27.993929,0.000000
          </coordinates>
        </LinearRing>
      </outerBoundaryIs>
    </Polygon>
  </Placemark>
</Document>
</kml>
